{
	"orders": [
		{
			"status": "New",
			"info": 
			{
				"name"   : "Jonel Dela Cruz",
				"email"  : "jonelDC@email.com",
				"number" : "021255454",
				"sum"    : "220"
			},
			"orders": 
			[
				{
					"name"  : "Lumpiang shanghai", 
					"desc"  : "Lumpiang shanghai, pancit canton, pork siomai, chicharap, buchi",
					"price" : 55.55,
					"qty"   : 2,
					"total" : 110.00
				},
				{
					"name"  : "Lumpiang shanghai", 
					"desc"  : "Lumpiang shanghai, pancit canton, pork siomai, chicharap, buchi",
					"price" : 55.55,
					"qty"   : 2,
					"total" : 110.00
				} 
			]
		},
		{
			"status": "Delivered",
			"info": 
			{
				"name"   : "Jonel Dela Cruz",
				"email"  : "jonelDC@email.com",
				"number" : "021255454",
				"sum"    : 220.00
			},
			"orders": 
			[
				{
					"name"  : "Lumpiang shanghai", 
					"desc"  : "Lumpiang shanghai, pancit canton, pork siomai, chicharap, buchi",
					"price" : 55.55,
					"qty"   : 2,
					"total" : 110.00
				},
				{
					"name"  : "Lumpiang shanghai", 
					"desc"  : "Lumpiang shanghai, pancit canton, pork siomai, chicharap, buchi",
					"price" : 55.55,
					"qty"   : 2,
					"total" : 110.00
				}
			]
		},
		{
			"status": "Canceled",
			"info": 
			{
				"name"   : "Jonel Dela Cruz",
				"email"  : "jonelDC@email.com",
				"number" : "021255454",
				"sum"    : 220.00
			},
			"orders": 
			[
				{
					"name"  : "Lumpiang shanghai", 
					"desc"  : "Lumpiang shanghai, pancit canton, pork siomai, chicharap, buchi",
					"price" : 55.55,
					"qty"   : 2,
					"total" : 110.00
				},
				{
					"name"  : "Lumpiang shanghai", 
					"desc"  : "Lumpiang shanghai, pancit canton, pork siomai, chicharap, buchi",
					"price" : 55.55,
					"qty"   : 2,
					"total" : 110.00
				}
			]
		}
	]
}